\relax 
\providecommand\hyper@newdestlabel[2]{}
\citation{rolim-etal:2017}
\citation{rolim-etal:2017}
\citation{rolim-etal:2017}
\citation{rolim-etal:2017}
\citation{rolim-etal:2017}
\citation{rolim-etal:2017}
\@writefile{nav}{\headcommand {\slideentry {4}{0}{13}{30/35}{}{0}}}
\@writefile{nav}{\headcommand {\beamer@framepages {30}{35}}}
\@setckpt{conclusao}{
\setcounter{page}{36}
\setcounter{equation}{0}
\setcounter{enumi}{0}
\setcounter{enumii}{0}
\setcounter{enumiii}{0}
\setcounter{enumiv}{0}
\setcounter{footnote}{0}
\setcounter{mpfootnote}{0}
\setcounter{beamerpauses}{1}
\setcounter{bookmark@seq@number}{4}
\setcounter{lecture}{0}
\setcounter{part}{0}
\setcounter{section}{4}
\setcounter{subsection}{0}
\setcounter{subsubsection}{0}
\setcounter{subsectionslide}{13}
\setcounter{framenumber}{21}
\setcounter{figure}{-2}
\setcounter{table}{0}
\setcounter{parentequation}{0}
\setcounter{theorem}{0}
\setcounter{ABCIaux}{0}
\setcounter{ABCImax}{0}
\setcounter{LT@tables}{0}
\setcounter{LT@chunks}{0}
\setcounter{ContinuedFloat}{2}
\setcounter{KVtest}{0}
\setcounter{subfigure}{8}
\setcounter{subfigure@save}{8}
\setcounter{depth}{1}
\setcounter{subtable}{0}
\setcounter{subtable@save}{0}
\setcounter{section@level}{0}
}
