\BOOKMARK [2][]{Outline0.1}{Problema}{}% 1
\BOOKMARK [2][]{Outline0.2}{Objetivos}{}% 2
\BOOKMARK [2][]{Outline0.3}{Metodologia}{}% 3
\BOOKMARK [2][]{Outline0.4}{Descri\347\343o da Aplica\347\343o}{}% 4
