\relax 
\providecommand\hyper@newdestlabel[2]{}
\providecommand\HyperFirstAtBeginDocument{\AtBeginDocument}
\HyperFirstAtBeginDocument{\ifx\hyper@anchor\@undefined
\global\let\oldcontentsline\contentsline
\gdef\contentsline#1#2#3#4{\oldcontentsline{#1}{#2}{#3}}
\global\let\oldnewlabel\newlabel
\gdef\newlabel#1#2{\newlabelxx{#1}#2}
\gdef\newlabelxx#1#2#3#4#5#6{\oldnewlabel{#1}{{#2}{#3}}}
\AtEndDocument{\ifx\hyper@anchor\@undefined
\let\contentsline\oldcontentsline
\let\newlabel\oldnewlabel
\fi}
\fi}
\global\let\hyper@last\relax 
\gdef\HyperFirstAtBeginDocument#1{#1}
\providecommand\HyField@AuxAddToFields[1]{}
\providecommand\HyField@AuxAddToCoFields[2]{}
\citation{abnt-url-package=url}
\providecommand \oddpage@label [2]{}
\@writefile{toc}{\beamer@endinputifotherversion {3.36pt}}
\@writefile{nav}{\beamer@endinputifotherversion {3.36pt}}
\select@language{english}
\@writefile{toc}{\select@language{english}}
\@writefile{lof}{\select@language{english}}
\@writefile{lot}{\select@language{english}}
\@writefile{nav}{\headcommand {\slideentry {0}{0}{1}{1/1}{}{0}}}
\@writefile{nav}{\headcommand {\beamer@framepages {1}{1}}}
\@input{roteiro.aux}
\@input{problema.aux}
\@input{objetivos.aux}
\@input{metodologia.aux}
\@input{aplicacao.aux}
\@input{conclusao.aux}
\bibstyle{abntex2-alf}
\bibdata{abntex2-options,referencias/article,referencias/conference,referencias/masterthesis,referencias/misc,referencias/online,referencias/techreport,referencias/unpublished}
\bibcite{melo-etal:2016}{Melo et al. 2016}
\bibciteEXPL{melo-etal:2016}{Melo et al.}
\bibciteIMPL{melo-etal:2016}{MELO et al.}
\bibciteYEAR{melo-etal:2016}{2016}
\bibcite{rolim-etal:2017}{Rolim et al. 2017}
\bibciteEXPL{rolim-etal:2017}{Rolim et al.}
\bibciteIMPL{rolim-etal:2017}{ROLIM et al.}
\bibciteYEAR{rolim-etal:2017}{2017}
\@writefile{nav}{\headcommand {\slideentry {4}{0}{14}{36/36}{}{0}}}
\@writefile{nav}{\headcommand {\beamer@framepages {36}{36}}}
\@writefile{nav}{\headcommand {\slideentry {4}{0}{15}{37/37}{}{0}}}
\@writefile{nav}{\headcommand {\beamer@framepages {37}{37}}}
\@writefile{nav}{\headcommand {\beamer@partpages {1}{37}}}
\@writefile{nav}{\headcommand {\beamer@subsectionpages {17}{37}}}
\@writefile{nav}{\headcommand {\beamer@sectionpages {17}{37}}}
\@writefile{nav}{\headcommand {\beamer@documentpages {37}}}
\@writefile{nav}{\headcommand {\def \inserttotalframenumber {24}}}
\bibstyle{abntex2-alf}
